[
  {
    "title": "Year",
    "type": "Integer (11)"
  },
  {
    "title": "Manufacturer",
    "type": "Varchar (255)"
  },
  {
    "title": "Model",
    "type": "Varchar (255)"
  },
  {
    "title": "Description",
    "type": "Varchar (2000)"
  },
  {
    "title": "Engine Capacity",
    "type": "Integer (11)"
  },
  {
    "title": "Fuel Type",
    "type": "Varchar (255)"
  },
  {
    "title": "Euro Standard",
    "type": "Integer (11)"
  },
  {
    "title": "Tax Band",
    "type": "Varchar (1)"
  },
  {
    "title": "Transmission",
    "type": "Varchar (255)"
  },
  {
    "title": "Transmission Type",
    "type": "Varchar (255)"
  },
  {
    "title": "Urban Fuel Consumption (Metric)",
    "type": "Decimal (11,2)"
  },
  {
    "title": "Extra Urban Fuel Consumption (Metric)",
    "type": "Decimal (11,2)"
  },
  {
    "title": "Combined Fuel Consumption (Metric)",
    "type": "Decimal (11,2)"
  },
  {
    "title": "Urban Fuel Consumption (Imperial)",
    "type": "Decimal (11,2)"
  },
  {
    "title": "Combined Fuel Consumption (Metric)",
    "type": "Decimal (11,2)"
  },
  {
    "title": "Urban Fuel Consumption (Imperial)",
    "type": "Decimal (11,2)"
  },
  {
    "title": "Combined Fuel Consumption (Metric)",
    "type": "Decimal (11,2)"
  },
  {
    "title": "Urban Fuel Consumption (Imperial)",
    "type": "Decimal (11,2)"
  },
  {
    "title": "Extra Urban Fuel Consumption (Imperial)",
    "type": "Decimal (11,2)"
  },
  {
    "title": "Combined Fuel Consumption (Imperial)",
    "type": "Decimal (11,2)"
  },
  {
    "title": "Fuel Cost (12000 Miles)",
    "type": "Decimal (11,2)"
  },
  {
    "title": "Noise Level",
    "type": "Decimal (11,4)"
  },
  {
    "title": "CO2",
    "type": "Decimal (11,4)"
  },
  {
    "title": "CO",
    "type": "Decimal (11,4)"
  },
  {
    "title": "NOX",
    "type": "Decimal (11,4)"
  }
]