[
  {
    "title": "Add data using CSV",
    "options": [
      {
        "title": "Fastest!",
        "type": "pro"
      },
      {
        "title": "Requires Admin",
        "type": "con"
      },
      {
        "title": "Strict structure",
        "type": "con"
      },
      {
        "title": "Will be mean to you",
        "type": "con"
      }
    ]
  },
  {
    "title": "Add data rows",
    "options": [
      {
        "title": "Bespoke!",
        "type": "pro"
      },
      {
        "title": "Requires Admin",
        "type": "con"
      },
      {
        "title": "Plays nice",
        "type": "con"
      }
    ]
  }
]